{
  "availability": "PRIVATE",
  "contextPath": "hwapp",
  "key": "myapplication-appkey-2",
  "name": "Helloworld application",
  "resourcesUrl": "https://bitbucket.org/CynthiaMhav/cumulocity-hw/raw/master/build",
  "type": "HOSTED",
  "imports": [
    "core/c8yBranding",
    "hwapp/myplugin",
    "hwapp/deviceContact",
    "core/deviceList",
    "core/deviceDetail"
  ]
}